<svg width="39" height="47" viewBox="0 0 39 47" fill="none" xmlns="http://www.w3.org/2000/svg">
<path d="M19.4586 47C30.061 47 38.6927 38.3684 38.6927 27.7659V17.1136H36.8217C31.009 17.1136 26.294 12.3986 26.294 6.58599V0H24.423C18.7601 0 14.1698 4.61518 14.1698 10.2781V24.6975C11.75 23.9241 10.0037 21.629 10.0037 18.9597V14.8684H8.13266C3.66716 14.8684 0 18.5106 0 23.0011V27.5663C0.0249469 38.2686 8.75637 47 19.4586 47ZM3.74204 22.9761C3.74204 21.2049 4.7898 19.6831 6.28661 18.9846C6.31156 24.3482 10.6772 28.7139 16.0408 28.7139H17.9118V10.2781C17.9118 7.30945 19.8827 4.81476 22.6019 4.01645V6.61093C22.6019 13.8455 28.0153 19.8328 35.0005 20.7558V27.7909C35.0005 36.3477 28.0403 43.3079 19.4835 43.3079C10.8269 43.3079 3.76695 36.2479 3.76695 27.5913V22.9761H3.74204Z" fill="white"/>
<path d="M26.5935 33.3539V26.5684H22.8764V33.3539C22.8764 33.5036 22.7516 33.6283 22.602 33.6283H15.8164V37.3454H22.602C24.7973 37.3704 26.5935 35.5742 26.5935 33.3539Z" fill="white"/>
</svg>
